性别：                          备注：女/男   没有未知状态
入党日期：xxxx-xx-xx    例如：2020-02-10
所属组织：xx或xxxx       备注：后台组织管理查看组织ID
等级：                          备注：普通党员/主任/委员/副书记/书记    不能支持兼任
党员状态：                    备注：合格/不合格
账号状态：                    备注：锁定/未锁定